…
```r
new_activity_by_interval <- new_activity %>%
        group_by(interval,day) %>%
        summarize(average_steps = mean(steps))
head(new_activity_by_interval,288)
```

```
## # A tibble: 288 x 3
## # Groups:   interval [144]
##    interval day     average_steps
##       <int> <fct>           <dbl>
##  1        0 weekday       2.03   
##  2        0 weekend       0.840  
##  3        5 weekday       0.445  
##  4        5 weekend       0.0425 
##  5       10 weekday       0.173  
##  6       10 weekend       0.0165 
##  7       15 weekday       0.198  
##  8       15 weekend       0.0189 
##  9       20 weekday       0.0990 
## 10       20 weekend       0.00943
## # ... with 278 more rows
```
…
