Reproducible Research Course Project 1
…
##       steps       date interval     day
## 1 1.7169811 2012-10-01        0 weekday
## 2 0.3396226 2012-10-01        5 weekday
## 3 0.1320755 2012-10-01       10 weekday
## 4 0.1509434 2012-10-01       15 weekday
## 5 0.0754717 2012-10-01       20 weekday
## 6 2.0943396 2012-10-01       25 weekday

new_activity_by_interval <- new_activity %>%
        group_by(interval,day) %>%
        summarize(average_steps = mean(steps))
head(new_activity_by_interval,288)

## # A tibble: 288 x 3
## # Groups:   interval [144]
##    interval day     average_steps
##       <int> <fct>           <dbl>
##  1        0 weekday       2.03   
##  2        0 weekend       0.840  
##  3        5 weekday       0.445  
##  4        5 weekend       0.0425 
##  5       10 weekday       0.173  
##  6       10 weekend       0.0165 
##  7       15 weekday       0.198  
##  8       15 weekend       0.0189 
##  9       20 weekday       0.0990 
## 10       20 weekend       0.00943
## # ... with 278 more rows
…
